C1
70.88
16.19
180
C2
118.74
10.32
0
C3
146.92
38.73
90
C4
116.76
13.33
90
C5
106.20
6.91
270
C6
114.54
13.33
90
C7
151.61
9.13
270
C8
161.37
25.40
0
C9
102.79
25.88
90
C11
90.81
41.35
180
C12
43.74
34.93
180
C13
100.81
25.88
90
C14
111.60
14.21
90
C15
106.76
25.88
90
C16
104.78
25.88
90
C17
112.87
20.64
0
C18
98.03
25.88
0
C19
97.79
14.29
90
C20
95.81
14.29
90
C21
55.40
55.40
180
C22
158.12
46.83
270
C23
95.17
21.19
270
C24 
97.16
21.19
270
C26
87.23
21.59
0
C27 
67.95
85.80
180
C29 
132.16
7.30
270
C30 
146.84
10.08
0
C32 
18.10
6.51
180
C33 
18.10
8.89
0
C35 
11.75
31.99
90
C36 
18.10
11.43
0
C37 
16.43
34.12
90
C38 
37.29
24.05
0
C40 
30.80
14.13
0
C41 
47.62
16.75
0
C42 
35.64
8.49
90
C43 
58.74
8.26
0
DA1 
66.68
12.46
90
DA2 
89.14
14.61
90
DA3 
44.37
29.77
180
DA4 
14.29
21.67
180
DA5 
30.73
17.35
0
DD1 
143.82
39.75
180
DD2 
149.70
15.08
180
DD3 
155.73
22.54
270
DD4 
92.00
37.39
270
DD5 
104.72
17.45
180
DD6 
162.88
52.23
90
DD7 
54.13
48.74
270
DD8 
127.71
13.02
180
DD9 
139.46
13.02
180
HL1
24.00
3.73
90
L2 
93.19
26.51
180
L5 
42.77
16.75
0
R1 
71.68
12.78
90
R3 
108.74
81.44
270
R4 
155.65
12.70
0
R5 
110.89
6.91
270
R6 
120.33
15.56
90
R7 
108.51
6.91
270
R8 
93.58
85.80
180
R9 
111.13
81.44
270
R10
159.39
8.49
270
R11 
114.94
10.32
180
R12 
119.78
12.54
180
R13 
59.85
14.45
180
R14 
59.85
16.67
180
R15 
147.64
7.06
270
R16 
150.65
5.00
0
R17 
156.77
16.27
270
R18 
161.37
23.18
0
R19 
98.35
71.91
270
R20 
98.35
75.80
90
R21 
103.82
6.91
90
R22 
149.23
20.95
90
R23 
153.83
17.70
270
R24 
71.04
21.51
180
R25 
59.93
21.19
180
R26 
97.63
36.83
270
R27 
99.85
36.83
270
R28 
60.09
42.86
0
R29 
81.28
48.34
90
R30 
112.87
18.65
0
R31 
48.26
22.30
0
R32 
48.26
24.53
0
R33 
71.52
74.53
0
R34 
75.41
76.76
90
R35 
78.42
74.53
0
R36 
43.34
37.54
180
R37 
40.01
38.50
90
R38 
69.85
49.13
0
R39 
76.28
47.78
0
R40 
82.31
76.76
90
R41 
85.33
74.53
0
R42 
89.30
76.76
90
R43 
93.19
22.62
270
R44 
123.43
75.88
180
R45 
127.41
75.88
0
R46 
140.02
75.88
180
R47 
143.92
75.88
0
R48 
156.53
75.88
180
R49 
159.62
74.93
270
R50 
166.05
64.37
180
R51 
166.05
68.66
180
R52 
61.20
46.59
0
R53 
119.54
75.88
180
R54 
131.29
75.88
0
R55 
136.05
75.88
180
R56 
147.88
75.88
0
R57 
152.56
75.88
180
R58 
161.93
74.93
90
R59 
166.05
62.39
0
R60 
166.05
70.64
0
R61 
55.40
57.79
0
R62 
56.28
39.93
180
R63 
55.40
60.09
0
R64 
44.45
49.77
90
R65 
48.90
49.77
90
R66 
46.67
49.77
90
R67 
63.40
51.59
0
R68 
61.18
54.21
0
R69 
68.90
43.26
270
R70 
123.19
81.93
90
R71 
131.45
81.93
90
R72
139.70
81.93
90
R73 
147.96
81.93
90
R74 
156.21
81.93
90
R75 
164.47
81.93
90
R76 
172.57
58.26
0
R77 
172.57
66.52
0
R78 
59.21
57.79
0
R79 
56.28
42.23
0
R80 
59.21
60.09
0
R81 
44.45
53.66
90
R82 
48.90
53.66
90
R83 
46.67
53.66
90
R84 
61.18
48.97
0
R85 
66.91
43.26
270
R86 
127.08
7.30
90
R87 
14.29
8.89
0
R88 
9.53
31.99
270
R89 
5.26
47.08
90
R90 
5.26
53.04
90
R91 
130.25
19.37
90
R92 
128.27
19.37
90
R93 
126.29
18.81
90
R94 
124.30
18.81
90
R95 
145.81
19.45
90
R96 
143.83
19.45
90
R97 
141.84
19.45
90
R98 
139.86
19.45
90
R99 
137.87
19.45
90
R100 
135.89
19.45
90
R101 
14.29
11.43
0
R102 
129.78
39.77
90
R103 
10.48
36.75
180
R104 
117.63
39.77
90
R105 
91.20
21.83
90
R106 
31.34
24.05
0
R107 
34.21
3.57
90
R108 
31.99
8.97
180
R109 
123.67
39.77
90
R110 
33.81
16.27
270
R111 
31.04
6.67
180
R112 
36.51
11.83
180
R113 
32.70
11.83
180
R114 
30.48
20.72
180
R115
111.52
39.77
90
R116 
39.85
13.57
270
R117 
38.66
4.60
270
R118 
53.02
11.92
270
R119 
50.40
11.92
270
R120 
36.43
4.60
270
R121 
47.78
11.92
270
R122 
55.72
8.89
90
R123 
58.74
10.48
0
R124 
58.74
3.81
0
R125 
55.72
5.08
90
R126 
58.74
6.03
0
R127  
67.95
72.31
270
R128  
67.95
68.82
270
R129  
79.22
5.95
0
R130  
71.68
66.99
0
R131  
52.47
39.93
0
R132  
52.47
42.23
180
SB1  
153.49
54.99
90
SB2  
131.49
54.99
90
SB3  
109.49
54.99
90
SB4  
87.49
54.99
90
SB5  
65.49
21.00
270
SB6  
76.49
21.00
270
SB7  
142.49
54.99
90
SB8  
120.49
54.99
90
SB9  
98.49
54.99
90
SB10  
76.49
54.99
90
SB11  
54.49
21.00
270
VD1  
101.44
74.79
270
VD2  
101.44
82.65
270
VD3  
107.41
73.50
180
VD4  
113.36
73.50
180
VD5  
161.19
15.32
0
VD6  
161.19
12.70
180
VD7  
107.41
76.12
180
VD8  
113.36
76.12
180
VD9  
161.19
17.94
0
VD10  
162.98
8.01
270
VD11  
114.46
82.42
270
VD12  
105.41
82.42
270
VD13  
95.49
74.71
270
VD14  
95.49
80.66
270
VD15  
149.62
36.10
90
VD16  
153.11
39.47
270
VD17  
92.87
74.71
270
VD18  
92.87
80.66
270
VD19  
77.17
12.78
180
VD20  
71.52
82.77
90
VD21  
74.93
82.96
270
VD22  
49.59
35.64
0
VD23  
78.42
82.77
90
VD24  
81.84
82.96
270
VD25  
85.33
82.77
90
VD26  
88.74
82.96
270
VD27  
119.06
82.42
270
VD28  
127.32
82.42
270
VD29  
135.57
82.42
270
VD30  
143.83
82.42
270
VD31  
152.08
82.42
270
VD32  
160.34
82.42
270
VD33  
173.39
62.39
180
VD34  
173.39
70.64
180
VD35  
15.62
49.78
180
VD36 
15.58
53.88
0
VD37  
11.79
42.26
180
VD38 
15.58
58.01
0
VD39  
5.51
10.40
180
VD40  
4.62
18.34
180
VD41  
3.40
38.85
90
VD42 
33.89
29.13
0
VD43  
147.96
49.70
270
VD44  
125.89
50.10
270
VD45  
104.06
48.67
270
VD46  
82.23
62.45
90
VD47 
59.77
27.53
90
VD48  
168.85
27.15
180
VD49  
168.85
24.53
180
VD50  
81.44
27.92
90
VD51  
168.85
29.77
180
VD52  
168.85
32.39
180
VD53  
162.42
34.13
180
VD54  
168.85
35.88
180
VD55  
162.42
37.62
180
VD56  
64.61
72.10
270
VD57  
72.56
69.69
180
VD58  
48.50
41.85
270
VD59  
6.20
38.85
90
VT1  
71.53
77.68
0
VT2  
78.44
77.68
0
VT3  
67.31
56.52
0
VT4  
85.34
77.68
0
VT5 
88.08
24.83
270
VT6  
66.05
47.36
180
VT7  
63.88
43.45
180
VT8  
126.75
39.72
180
VT9  
114.60
39.72
180
VT10  
30.98
3.58
90
VT11  
120.64
39.72
180
VT12  
108.49
39.72
180
VT13  
36.82
15.27
180
VT14  
38.67
8.54
0
VT15  
42.02
4.62
90
VT16  
49.93
6.03
90
ZQ2  
122.16
24.37
180
      
   

